Rainfall indices — rainfall • climatrends
…
# rainfall indices over a time series          
rainfall(lonlat,
         day.one = dates,
         span = 50,
         timeseries = TRUE,
         intervals = 7)
#> # A tibble: 210 x 4
#>       id date       index  value
#>    <int> <date>     <chr>  <dbl>
#>  1     1 2018-05-18 MLDS    7   
#>  2     1 2018-05-18 MLWS    0   
#>  3     1 2018-05-18 R10mm   0   
#>  4     1 2018-05-18 R20mm   0   
#>  5     1 2018-05-18 Rx1day  0.16
#>  6     1 2018-05-18 Rx5day  0.17
#>  7     1 2018-05-18 R95p    0.16
#>  8     1 2018-05-18 R99p    0.16
#>  9     1 2018-05-18 Rtotal  0.2 
#> 10     1 2018-05-18 SDII    0   
#> # … with 200 more rows
…
